<svg width="32" height="32" viewBox="0 0 32 32" fill="none" xmlns="http://www.w3.org/2000/svg">
<path d="M16 16L1.39876e-06 16C6.26248e-07 24.8366 7.16344 32 16 32L16 16Z" fill="#E3D6FF"/>
<line x1="16" y1="16.5" x2="1" y2="16.5" stroke="#7759C2"/>
<path d="M16 16.5L5.26514 27.2651" stroke="#7759C2" stroke-width="0.75"/>
<path d="M16.5 19L7.26513 28.2651" stroke="#7759C2" stroke-width="0.75"/>
<path d="M16.5 22L9 29.5" stroke="#7759C2" stroke-width="0.75"/>
<path d="M16.5 25L11 30.5" stroke="#7759C2" stroke-width="0.75"/>
<path d="M16.5 28L13.2651 31.2651" stroke="#7759C2" stroke-width="0.75"/>
<path d="M13.3535 16.3536L4 25.5" stroke="#7759C2" stroke-width="0.75"/>
<path d="M10.3535 16.3536L2.5 24" stroke="#7759C2" stroke-width="0.75"/>
<path d="M7.35352 16.3536L1.5 22" stroke="#7759C2" stroke-width="0.75"/>
<path d="M4.35352 16.3536L1 19.5" stroke="#7759C2" stroke-width="0.75"/>
<path d="M16 16L16 -6.99382e-07C7.16344 -3.13124e-07 -3.86258e-07 7.16344 0 16L16 16Z" fill="#E8E7EB"/>
<circle cx="16" cy="16" r="15.5" stroke="#7759C2"/>
<path d="M16 32C24.8366 32 32 24.8366 32 16C32 7.16344 24.8366 0 16 0V32Z" fill="#7759C2"/>
</svg>
